%YAML 1.1
%TAG !u! tag:unity3d.com,2011:
--- !u!114 &11400000
MonoBehaviour:
  m_ObjectHideFlags: 0
  m_CorrespondingSourceObject: {fileID: 0}
  m_PrefabInstance: {fileID: 0}
  m_PrefabAsset: {fileID: 0}
  m_GameObject: {fileID: 0}
  m_Enabled: 1
  m_EditorHideFlags: 0
  m_Script: {fileID: 11500000, guid: 74ab4b6cf47ef8c42ace996f9f60494a, type: 3}
  m_Name: Sword
  m_EditorClassIdentifier: 
  weaponPrefab: {fileID: 3867268807505386204, guid: 7fba4372c01210840af327471fdc9d80, type: 3}
  weaponCooldown: 0.2
  weaponDamage: 1
  weaponRange: 0
